A
A
A
B+
B-
A
B+
D+
B+
B-
B+
A
B+
A
B-
B+
B
B+
B+
B-
A
B+
A-
B+
B-
B+
D+
A-
A
B+
F
B+
B-
B+
B+
B+
C+
A-
B+
B+
D+
A
D+
A
B+
B+
B+
B+
B+
A
A
B-
B+
B+
C
A
B+
B+
B+
A
B+
B+
D+
B
A
A
A
B+
C
B+
D+
F
A
B+
B+
B+
B+
A
B+
B+
B+
A
B+
B+
F
B+
B+
B+
A
B+
B+
B-
B+
B+
B-
B+
D+
D+
A
D+
A
B+
B+
D-
B-
B+
A
D+
B+
B-
C-
B+
B+
A
B+
A
B+
A
C
A
B+
B+
A
D+
C+
B+
A
D+
B+
B+
A
B+
C+
B+
B+
B-
B
A
A-
A
B+
B
B+
B-
A
B+
A
C+
B+
A
B+
A
A-
B+
B+
B+
B+
B-
C+
B+
B+
A
B-
D+
B-
A
A
B+
D+
A
B+
B+
B+
B-
B
C-
C+
B+
A
B+
B
B+
B+
B+
B+
B+
B-
B-
A-
B+
A
B-
A-
A
B-
B+
B
C+
A-
B+
B+
B+
B+
B+
A
B
B-
A
B+
C
A
B+
B+
A
B+
B+
B-
A
A
A-
B
B+
B
D+
A
A
D+
B-
B+
C
A
B-
B+
A
B-
B+
A
B+
A
B+
A-
B-
D+
A
B+
A
B+
B+
D+
B+
B+
B+
B+
A
A-
A
B+
B+
A
C+
A
F
D+
B+
B-
A
B+
B-
D-
B+
B+
B+
A
B-
A
D+
B+
B
B+
B+
B+
B-
A
A-
B+
B+
B+
B+
B+
C-
B
B-
A-
B+
